…
    ## The following objects are masked from 'package:stats':
    ## 
    ##     filter, lag

    ## The following objects are masked from 'package:base':
    ## 
    ##     intersect, setdiff, setequal, union

``` r
billboard_last_week_on_chart <- billboard %>% group_by(SongID) %>% top_n(1, Weeks.on.Chart)
#View(billboard_last_week_on_chart)
count(billboard_last_week_on_chart)
```

    ## # A tibble: 28,474 x 2
    ## # Groups:   SongID [28,474]
    ##    SongID                                                n
    ##    <chr>                                             <int>
    ##  1 '03 Bonnie & ClydeJay-Z Featuring Beyonce Knowles     1
    ##  2 '65 Love AffairPaul Davis                             1
    ##  3 '98 Thug ParadiseTragedy, Capone, Infinite            1
    ##  4 'Round We GoBig Sister                                1
    ##  5 'til I Can Make It On My OwnTammy Wynette             1
    ##  6 'til It's Time To Say GoodbyeJonathan Cain            1
    ##  7 'Til My Baby Comes HomeLuther Vandross                1
    ##  8 'Til Summer Comes AroundKeith Urban                   1
    ##  9 'Til You Do Me RightAfter 7                           1
    ## 10 'TilThe Angels                                        1
    ## # ... with 28,464 more rows
…
